{
  "appName": {
    "message": "Atlassian Connect Analytics",
    "description": "The name of the application"
  },
  "appDescription": {
    "message": "Analytics for Atlassian Connect add-ons",
    "description": "The description of the application"
  }
}
